{
	"info": {
		"_postman_id": "35c1dffe-e77a-442c-bc27-b24805255641",
		"name": "s41-activity",
		"schema": "https://schema.getpostman.com/json/collection/v2.1.0/collection.json",
		"_exporter_id": "29452590"
	},
	"item": [
		{
			"name": "add user",
			"request": {
				"method": "POST",
				"header": [],
				"body": {
					"mode": "raw",
					"raw": "{\r\n    \"username\": \"sampleuser\",\r\n    \"password\": \"samplepass\"\r\n}",
					"options": {
						"raw": {
							"language": "json"
						}
					}
				},
				"url": {
					"raw": "http://localhost:3001/signup",
					"protocol": "http",
					"host": [
						"localhost"
					],
					"port": "3001",
					"path": [
						"signup"
					]
				}
			},
			"response": []
		}
	]
}